<?xml version="1.0" standalone="no"?>
<!DOCTYPE svg PUBLIC "-//W3C//DTD SVG 20010904//EN"
 "http://www.w3.org/TR/2001/REC-SVG-20010904/DTD/svg10.dtd">
<svg version="1.0" xmlns="http://www.w3.org/2000/svg"
 width="832.000000pt" height="832.000000pt" viewBox="0 0 832.000000 832.000000"
 preserveAspectRatio="xMidYMid meet">
<metadata>
Created by potrace 1.11, written by Peter Selinger 2001-2013
</metadata>
<g transform="translate(0.000000,832.000000) scale(0.100000,-0.100000)"
fill="#000000" stroke="none">
<path d="M1159 7116 c-2 -3 -33 -7 -69 -11 -35 -4 -72 -11 -81 -16 -9 -4 -18
-6 -21 -4 -4 5 -164 -46 -203 -64 -11 -5 -38 -18 -60 -27 -106 -47 -267 -164
-368 -268 -54 -56 -177 -217 -177 -231 0 -4 -8 -19 -18 -33 -17 -25 -81 -164
-87 -187 -1 -5 -5 -17 -8 -25 -13 -31 -47 -177 -56 -240 -12 -82 -13 -3627 -1
-3690 4 -25 10 -61 13 -80 18 -135 101 -334 200 -480 77 -113 214 -256 297
-308 14 -9 27 -19 30 -22 14 -16 116 -74 193 -110 107 -50 152 -65 312 -99 88
-19 154 -20 3120 -18 1667 1 3039 5 3050 8 11 4 36 9 55 13 66 12 75 14 173
46 53 18 97 36 97 42 0 5 4 7 8 4 18 -11 191 93 291 173 60 48 142 130 177
177 16 22 31 41 34 44 47 46 151 240 190 354 16 47 26 86 23 86 -3 0 -1 6 4
12 6 7 11 20 11 28 0 8 3 26 6 40 3 14 9 41 13 60 10 49 14 3710 4 3710 -4 0
-7 10 -6 22 4 49 -48 236 -86 310 -5 10 -9 25 -9 33 0 8 -4 15 -10 15 -5 0
-10 8 -10 18 0 10 -4 22 -9 27 -5 6 -22 33 -37 60 -85 154 -250 327 -411 431
-87 56 -226 122 -293 139 -3 1 -12 4 -20 7 -33 12 -107 31 -134 35 -15 2 -54
7 -85 12 -54 10 -6033 16 -6042 7z"/>
</g>
</svg>
