{
    "type": "work",
    "urn": "urn:cts:pta:pta0001.pta020",
    "group_urn": "urn:cts:pta:pta0001",
    "pta_id": "PTA020",
    "group_name": {},
    "title": "In incarnationem domini",
    "language": "gr",
    "image_url": "card_placeholder.jpg",
    "image_alt": {
        "de": "Platzhalter Bildbeschreibung",
        "en": "Image description placeholder"
    },
    "work_items": [
        {
            "type": "edition",
            "urn": "urn:cts:pta:pta0001.pta020.pta-grc1",
            "work_urn": "urn:cts:pta:pta0001.pta020",
            "pta_id": "PTA-GRC1",
            "label": "Severian, In incarnationem domini",
            "language": "",
            "description": {
                "de": "",
                "en": "\n            Remco F. Regtuit, Severian of Gabala, Homily on the Incarnation of Christ (CPG 4204) :\n            Text, Translation and Introduction, Amsterdam 1992 (critical edition)\n        ",
                "gr": "",
                "lat": "",
                "fr": ""
            },
            "metadata": {
                "creator": "",
                "title": "",
                "contributors": [],
                "date_copyrighted": "",
                "bibliographic_citation": "",
                "publisher": "",
                "format": "",
                "created": ""
            }
        }
    ]
}