{
    "type": "work",
    "urn": "urn:cts:pta:pta0001.pta036",
    "group_urn": "urn:cts:pta:pta0001",
    "pta_id": "PTA036",
    "group_name": {},
    "title": "De centurione et contra Manichaeos et Apolinaristas",
    "language": "gr",
    "image_url": "card_placeholder.jpg",
    "image_alt": {
        "de": "Platzhalter Bildbeschreibung",
        "en": "Image description placeholder"
    },
    "work_items": [
        {
            "type": "edition",
            "urn": "urn:cts:pta:pta0001.pta036.pta-grc1",
            "work_urn": "urn:cts:pta:pta0001.pta036",
            "pta_id": "PTA-GRC1",
            "label": "Severian, De centurione et contra Manichaeos et Apolinaristas",
            "language": "",
            "description": {
                "de": "",
                "en": "\n            M. Aubineau, Un trait\u00e9 in\u00e9dit de christologie de S\u00e9v\u00e9rien de Gabala In centurionem et contra Manichaeos et Apollinaristas, Cahiers d'Orientalisme V, Genf 1983 (critical edition)\n        ",
                "gr": "",
                "lat": "",
                "fr": ""
            },
            "metadata": {
                "creator": "",
                "title": "",
                "contributors": [],
                "date_copyrighted": "",
                "bibliographic_citation": "",
                "publisher": "",
                "format": "",
                "created": ""
            }
        }
    ]
}