{
    "type": "work",
    "urn": "urn:cts:pta:pta0001.pta052",
    "group_urn": "urn:cts:pta:pta0001",
    "pta_id": "PTA052",
    "group_name": {},
    "title": "In accensionem domini",
    "language": "gr",
    "image_url": "card_placeholder.jpg",
    "image_alt": {
        "de": "Platzhalter Bildbeschreibung",
        "en": "Image description placeholder"
    },
    "work_items": [
        {
            "type": "edition",
            "urn": "urn:cts:pta:pta0001.pta052.pta-grc1",
            "work_urn": "urn:cts:pta:pta0001.pta052",
            "pta_id": "PTA-GRC1",
            "label": "Severian, In accensionem domini",
            "language": "",
            "description": {
                "de": "",
                "en": "\n            H. Chatzoglou-Balta, \u1f1d\u03be \u03bb\u03cc\u03b3\u03bf\u03b9 \u03c3\u03c4\u1f74\u03bd \u1f11\u03bf\u03c1\u03c4\u1f74 \u03c4\u1fc6\u03c2 \u1f08\u03bd\u03b1\u03bb\u03ae\u03c8\u03b5\u03c9\u03c2 \u03c4\u03bf\u1fe6 \u039a\u03c5\u03c1\u03af\u03bf\u03c5 \u1f00\u03c0\u03bf\u03b4\u03b9\u03b4\u03cc\u03bc\u03b5\u03bd\u03bf\u03b9 \u03c3\u03c4\u1f78\u03bd \u1f05\u03b3\u03b9\u03bf \u1f38\u03c9\u03ac\u03bd\u03bd\u03b7 \u03c4\u1f78\u03bd \u03a7\u03c1\u03c5\u03c3\u03cc\u03c3\u03c4\u03bf\u03bc\u03bf. \u03a0\u03c1\u03bf\u03bb\u03b5\u03b3\u03cc\u03bc\u03b5\u03bd\u03b1 \u03c3\u1f72 \u03bc\u03b9\u1f70 \u03ba\u03c1\u03b9\u03c4\u03b9\u03ba\u1f74 \u1f14\u03ba\u03b4\u03bf\u03c3\u03b7, \u1f18\u03c0\u03b5\u03c4\u03b7\u03c1\u1f76\u03c2 \u1f19\u03c4\u03b1\u03b9\u03c1\u03b5\u03af\u03b1\u03c2 \u0392\u03c5\u03b6\u03b1\u03bd\u03c4\u03b9\u03bd\u1ff6\u03bd \u03a3\u03c0\u03bf\u03c5\u03b4\u1ff6\u03bd 53, 2009, 303-376 (critical edition)\n        ",
                "gr": "",
                "lat": "",
                "fr": ""
            },
            "metadata": {
                "creator": "",
                "title": "",
                "contributors": [],
                "date_copyrighted": "",
                "bibliographic_citation": "",
                "publisher": "",
                "format": "",
                "created": ""
            }
        }
    ]
}