{
    "type": "textgroup",
    "urn": "urn:cts:pta:pta0022",
    "group_urn": "",
    "pta_id": "PTA0022",
    "group_name": {
        "de": "",
        "en": "Athanasius of Alexandria",
        "gr": "",
        "lat": "Athanasius Alexandrinus",
        "fr": ""
    },
    "title": "",
    "language": "",
    "image_url": "card_placeholder.jpg",
    "image_alt": {
        "de": "Platzhalter Bildbeschreibung",
        "en": "Image description placeholder"
    },
    "work_items": []
}