{
    "type": "work",
    "urn": "urn:cts:pta:pta0100.pta003",
    "group_urn": "urn:cts:pta:pta0100",
    "pta_id": "PTA003",
    "group_name": {},
    "title": "Dokumente zur Geschichte des arianischen Streites (Dok. 3)",
    "language": "gr",
    "image_url": "card_placeholder.jpg",
    "image_alt": {
        "de": "Platzhalter Bildbeschreibung",
        "en": "Image description placeholder"
    },
    "work_items": [
        {
            "type": "edition",
            "urn": "urn:cts:pta:pta0100.pta003.pta-grc1",
            "work_urn": "urn:cts:pta:pta0100.pta003",
            "pta_id": "PTA-GRC1",
            "label": "Dok. 3",
            "language": "",
            "description": {
                "de": "",
                "en": "\n            Athanasius Werke III 3\n        ",
                "gr": "",
                "lat": "",
                "fr": ""
            },
            "metadata": {
                "creator": "",
                "title": "",
                "contributors": [],
                "date_copyrighted": "",
                "bibliographic_citation": "",
                "publisher": "",
                "format": "",
                "created": ""
            }
        },
        {
            "type": "translation",
            "urn": "urn:cts:pta:pta0100.pta003.pta-deu1",
            "work_urn": "urn:cts:pta:pta0100.pta003",
            "pta_id": "PTA-DEU1",
            "label": "Dok. 3",
            "language": "de",
            "description": {
                "de": "",
                "en": "\n            Athanasius Werke III 3\n        ",
                "gr": "",
                "lat": "",
                "fr": ""
            },
            "metadata": {
                "creator": "",
                "title": "",
                "contributors": [],
                "date_copyrighted": "",
                "bibliographic_citation": "",
                "publisher": "",
                "format": "",
                "created": ""
            }
        }
    ]
}