{
    "type": "work",
    "urn": "urn:cts:pta:pta0001.pta006",
    "group_urn": "urn:cts:pta:pta0001",
    "pta_id": "PTA006",
    "group_name": {},
    "title": "In psalmum 96",
    "language": "gr",
    "image_url": "card_placeholder.jpg",
    "image_alt": {
        "de": "Platzhalter Bildbeschreibung",
        "en": "Image description placeholder"
    },
    "work_items": [
        {
            "type": "edition",
            "urn": "urn:cts:pta:pta0001.pta006.pta-grc1",
            "work_urn": "urn:cts:pta:pta0001.pta006",
            "pta_id": "PTA-GRC1",
            "label": "Severian, In psalmum 96",
            "language": "",
            "description": {
                "de": "",
                "en": "\n            Patrologia Graeca edition (non-critical edition with notes)\n        ",
                "gr": "",
                "lat": "",
                "fr": ""
            },
            "metadata": {
                "creator": "",
                "title": "",
                "contributors": [],
                "date_copyrighted": "",
                "bibliographic_citation": "",
                "publisher": "",
                "format": "",
                "created": ""
            }
        }
    ]
}